8.3623e-01 8.5256e-01 4.8336e-01 4.8691e-01 9.2346e-01 9.3090e-01
7.6689e-02 5.2133e-01 3.8344e-01 4.2902e-01 3.5802e-01 5.5981e-01
6.7581e-01 1.8365e-01 9.0839e-01 6.4242e-02 5.9351e-01 5.0870e-03
9.9003e-01 3.0238e-01 9.4657e-01 2.1761e-01 5.4554e-01 2.9927e-01
8.8840e-02 9.3800e-01 8.2517e-01 7.5942e-01 7.0124e-01 1.3759e-01
